TIMESTAMP_LessOne,Qry_AllertonBywater_Daily.RAIN_mm_TOT,Qry_Middleton_Daily.RAIN_mm_TOT,Qry_Otley_Daily.RAIN_mm_TOT,Qry_PotteryField_Daily.RAIN_mm_TOT,Qry_Shadwell_Daily.RAIN_mm_TOT,Qry_Wetherby_Daily.RAIN_mm_TOT
1-May-17,0,0,0.2,0,0,0
2-May-17,0,0.2,0,0,0,0
3-May-17,0,0,0,0,0,0
4-May-17,0,0,0,0,0,0
5-May-17,0,0,0,0,0,0
6-May-17,0,0,0,0,0,0
7-May-17,0,0,0,0,0,0
8-May-17,0,0,0,0,0,0
9-May-17,0,0,0,0,0,0
10-May-17,0,0,0,0,0,0
11-May-17,0,0,0,0,0,0
12-May-17,0,0,0.2,0.2,0,0
13-May-17,0,0.2,0,0,0.2,0
14-May-17,4,3.800001,4.2,3.200001,4.4,5
15-May-17,7.399997,8.799996,9.999995,7.599997,8.799996,6.999998
16-May-17,3.800001,5.599999,5.199999,5,5.399999,5.199999
17-May-17,9.199996,8.599997,3.400001,6.599998,7.199997,8.199997
18-May-17,2.6,0.8,0,0.6,0.8,2.4
19-May-17,5,3.400001,2.6,3.800001,5,4.4
20-May-17,1.8,4.6,4,5.199999,5.399999,5.399999
21-May-17,0,0.2,0,0,0.2,0
22-May-17,0,0,0,0.2,0,0
23-May-17,0,0,0,0,0,0
24-May-17,0,0,0,0,0,0
25-May-17,0,0,0,0,0,0
26-May-17,0,0,0,0,0,0
27-May-17,5.399999,5.199999,13.99999,5.199999,7.199997,14.99999
28-May-17,0,0,0.2,0,0,0
29-May-17,1.8,4.8,4.6,2.8,2.6,4
30-May-17,0.6,1.2,1.4,2.8,2.8,5.199999
31-May-17,0,0,0,0,0,0
