TIMESTAMP_LessOne,Qry_AllertonBywater_Daily.RAIN_mm_TOT,Qry_Middleton_Daily.RAIN_mm_TOT,Qry_Otley_Daily.RAIN_mm_TOT,Qry_PotteryField_Daily.RAIN_mm_TOT,Qry_Shadwell_Daily.RAIN_mm_TOT,Qry_Wetherby_Daily.RAIN_mm_TOT
01/12/2015,4,5.199999,4.6,4.6,4.8,3.600001
02/12/2015,0,0.4,0.4,0.2,0.2,0
03/12/2015,4.2,6.199998,6.999998,5.399999,5.999999,6.999998
04/12/2015,0.6,0,1.4,0.6,0.6,0.2
05/12/2015,0.2,2,5.399999,1,1.2,0.4
06/12/2015,2,1,0.8,0.6,0.4,0.8
07/12/2015,0.6,0.6,0.8,0.4,0.6,0.8
08/12/2015,2,0.8,1.8,0.8,1.6,1.8
09/12/2015,0.2,0,0.2,0,0,0
10/12/2015,4.2,9.599996,12.79999,10.39999,9.799995,7.599997
11/12/2015,2.2,3.800001,9.199996,6.199998,3.800001,5.599999
12/12/2015,23.00002,32.80005,27.40003,28.80004,24.00002,19.6
13/12/2015,1.2,1.8,1.8,1.4,1.4,1.2
14/12/2015,0.2,0.6,0.6,0.4,0.4,0.2
15/12/2015,1.6,4.8,2.8,3.600001,2.4,1.8
16/12/2015,1.4,2.4,3.800001,3,2.8,1.4
17/12/2015,0,0.2,0,0,0,0
18/12/2015,0,0,0,0,0,0
19/12/2015,0,0.2,0.8,0,0.4,0.6
20/12/2015,0,0,0.6,0,0,0.4
21/12/2015,1.4,1.4,2.8,1.4,2.2,3.800001
22/12/2015,2.8,4.4,5.999999,4,5.399999,4
23/12/2015,2.4,3,1,3.600001,1.8,0.6
24/12/2015,1.6,1.8,2.8,2,1.2,1.4
25/12/2015,7.799997,12.79999,34.60006,14.99999,16.99999,23.80002
26/12/2015,11.19999,17.19999,41.80009,22.20001,24.00002,33.40005
27/12/2015,1,1.6,1.8,1,1,1
28/12/2015,0.2,0.2,0,0,0,0
29/12/2015,0.4,0.4,0.2,0.4,0.4,0.4
30/12/2015,8.999996,11.39999,9.999995,6.799998,9.599996,7.399997
31/12/2015,4.4,2.8,4,6.799998,4,4.6
