TIMESTAMP_LessOne,Qry_AllertonBywater_Daily.RAIN_mm_TOT,Qry_Middleton_Daily.RAIN_mm_TOT,Qry_Otley_Daily.RAIN_mm_TOT,Qry_PotteryField_Daily.RAIN_mm_TOT,Qry_Shadwell_Daily.RAIN_mm_TOT,Qry_Wetherby_Daily.RAIN_mm_TOT
01-Feb-14,0,2.2,0.6,1,2.8,2
02-Feb-14,0,0.2,3,0.8,0.6,1.8
03-Feb-14,0,0,0,0,0,0
04-Feb-14,1.2,1.6,2.2,0.8,2.2,3
05-Feb-14,7.999997,10.39999,3.600001,9.199996,7.199997,7.799997
06-Feb-14,7.999997,9.799995,2,8.799996,7.999997,9.399996
07-Feb-14,0.4,0.6,2.2,1,0.6,0.6
08-Feb-14,3.400001,4,2.8,4.2,3.200001,5.199999
09-Feb-14,3.800001,5,4.4,4.6,2.6,1.6
10-Feb-14,0.2,0,0,0,0,0.2
11-Feb-14,4.6,3.400001,4.4,4.6,3.600001,4.6
12-Feb-14,8.799996,9.599996,10.2,10.39999,8.799996,10.2
13-Feb-14,0.2,0.6,0.4,0.6,0.2,0
14-Feb-14,5.399999,11.39999,7.199997,9.999995,8.999996,10.2
15-Feb-14,5,8.599997,3.600001,9.199996,4.2,4.4
16-Feb-14,0,0,0,0.2,0,0
17-Feb-14,0.2,1,4,3.200001,3.800001,3.600001
18-Feb-14,0.2,0,0.2,0,0,0
19-Feb-14,0.2,0.6,0.8,0.2,0.4,0
20-Feb-14,1.6,2.8,3.400001,3.200001,3.600001,0
21-Feb-14,2.4,4.8,4.2,2.6,1,0
22-Feb-14,0,0,0.2,1.2,0,0
23-Feb-14,0,0,0,0,0,0
24-Feb-14,0,0,0.2,0,0,0
25-Feb-14,0.2,1.8,2.2,1.8,2.2,0
26-Feb-14,0,0,0,0,0,0
27-Feb-14,5,4.4,9.399996,5,6.399998,0
28-Feb-14,0,0.8,0.4,0.6,0,0
