TIMESTAMP_LessOne,Qry_AllertonBywater_Daily.RAIN_mm_TOT,Qry_Middleton_Daily.RAIN_mm_TOT,Qry_PotteryField_Daily.RAIN_mm_TOT
01-Jul-14,0,0,0
02-Jul-14,0,0,0
03-Jul-14,0,0,0
04-Jul-14,2.4,3.200001,3.800001
05-Jul-14,7.599997,6.799998,5.399999
06-Jul-14,0,0,0
07-Jul-14,0.2,6.599998,2.6
08-Jul-14,14.39999,6.799998,11.19999
09-Jul-14,0,0,0
10-Jul-14,0,0,0
11-Jul-14,0,0,0
12-Jul-14,1.6,9.399996,7.999997
13-Jul-14,20,9.399996,7.999997
14-Jul-14,0,0,0
15-Jul-14,0,0,0
16-Jul-14,0.2,1.4,1.2
17-Jul-14,0,0,0
18-Jul-14,1,0.2,0.4
19-Jul-14,6.999998,9.799995,7.999997
20-Jul-14,0,0.2,0
21-Jul-14,0,0,0
22-Jul-14,0,0,0
23-Jul-14,0,0,0
24-Jul-14,0,0,0
25-Jul-14,0,0,0
26-Jul-14,0,0,0
27-Jul-14,3.400001,1.6,0.8
28-Jul-14,0.2,0,0
29-Jul-14,0,0,0
30-Jul-14,0,0,0
31-Jul-14,0,0,0
