TIMESTAMP_LessOne,Qry_AllertonBywater_Daily.RAIN_mm_TOT,Qry_Middleton_Daily.RAIN_mm_TOT,Qry_Otley_Daily.RAIN_mm_TOT,Qry_Shadwell_Daily.RAIN_mm_TOT,Qry_PotteryField_Daily.RAIN_mm_TOT
01/10/2016,2.8,7.199997,0.2,8.199997,8.999996
02/10/2016,0,0.2,0,0.2,0
03/10/2016,0.2,0,0,0,0
04/10/2016,0,0,0.2,0.2,0
05/10/2016,0.2,0,0,0,0
06/10/2016,0,0.4,0,0,0
07/10/2016,1.6,1.8,5.999999,4.4,2.2
08/10/2016,0,0.4,0.4,0.2,0.6
09/10/2016,0.2,1.2,0.8,1.2,2.4
10/10/2016,1.8,1.2,0.2,1,1
11/10/2016,2.6,5.199999,1.8,2,2.4
12/10/2016,3,1.4,0,0.2,1.2
13/10/2016,12.19999,13.19999,5.599999,10.2,9.799995
14/10/2016,0.4,2,0.4,0.6,0.2
15/10/2016,0,0,0.2,0,0
16/10/2016,4.2,2.4,2.8,3.200001,2.4
17/10/2016,0,0.2,2,0.2,0.2
18/10/2016,1.6,2,3.400001,3.400001,3
19/10/2016,0.4,0.6,0,0.6,0.2
20/10/2016,0.4,0.8,1.4,1.6,1.4
21/10/2016,0.2,0,0,0,0
22/10/2016,0.2,0.2,0.6,0.4,0
23/10/2016,0.4,0.2,0.4,0.2,0
24/10/2016,0,0,0,0,0
25/10/2016,0,0,0.2,0.2,0
26/10/2016,0,0,0,0,0
27/10/2016,0,0,0,0,0
28/10/2016,0.2,0.4,0.8,0.8,0.2
29/10/2016,0,0,0,0.4,0.2
30/10/2016,0,0,0,0,0
31/10/2016,0,0,0,0,0
