TIMESTAMP_LessOne,Qry_AllertonBywater_Daily.RAIN_mm_TOT,Qry_Middleton_Daily.RAIN_mm_TOT,Qry_Shadwell_Daily.RAIN_mm_TOT,Qry_Wetherby_Daily.RAIN_mm_TOT
1-Jan-18,0.8,1.6,1.4,3
2-Jan-18,8.199997,9.199996,10.2,8.999996
3-Jan-18,3.600001,5.599999,6.599998,3.200001
4-Jan-18,3,4.4,5.199999,4.4
5-Jan-18,0,0,0,0
6-Jan-18,0.8,1.2,1,1.4
7-Jan-18,0,0,0.2,0.2
8-Jan-18,0,0.2,0,0.2
9-Jan-18,0,0.2,0.2,0.2
10-Jan-18,2,4.2,4,2.6
11-Jan-18,0,0,0,0
12-Jan-18,0.2,0,0,0.2
13-Jan-18,0,0,0,0
14-Jan-18,0.2,0.2,0.4,0
15-Jan-18,8.999996,7.799997,6.599998,13.79999
16-Jan-18,6.999998,4.2,4.6,4.4
17-Jan-18,5.599999,10.39999,7.799997,3.600001
18-Jan-18,7.799997,7.399997,10.79999,10.2
19-Jan-18,2.2,3.200001,1.6,1
20-Jan-18,0.2,0.2,0.4,0
21-Jan-18,5.999999,7.599997,5.399999,4
22-Jan-18,0.2,0.4,1.4,0.4
23-Jan-18,0,0,0,0
24-Jan-18,8.999996,9.999995,7.999997,8.199997
25-Jan-18,3,3,2,0.8
26-Jan-18,0.4,0.2,0.2,0
27-Jan-18,0,0,0,0
28-Jan-18,0.4,2.6,1,1.4
29-Jan-18,2.6,2,1.8,1
30-Jan-18,0,0,0,0
31-Jan-18,3.600001,7.799997,5,5.199999
